<?xml version="1.0" encoding="UTF-8" standalone="no"?>
<svg
   xmlns:dc="http://purl.org/dc/elements/1.1/"
   xmlns:cc="http://creativecommons.org/ns#"
   xmlns:rdf="http://www.w3.org/1999/02/22-rdf-syntax-ns#"
   xmlns:svg="http://www.w3.org/2000/svg"
   xmlns="http://www.w3.org/2000/svg"
   xmlns:sodipodi="http://sodipodi.sourceforge.net/DTD/sodipodi-0.dtd"
   xmlns:inkscape="http://www.inkscape.org/namespaces/inkscape"
   width="45.926277pt"
   height="42.438976pt"
   viewBox="0 0 45.926277 42.438976"
   version="1.1"
   id="svg2676"
   sodipodi:docname="codoul.svg"
   inkscape:version="0.92.1 r15371">
  <metadata
     id="metadata2682">
    <rdf:RDF>
      <cc:Work
         rdf:about="">
        <dc:format>image/svg+xml</dc:format>
        <dc:type
           rdf:resource="http://purl.org/dc/dcmitype/StillImage" />
        <dc:title></dc:title>
      </cc:Work>
    </rdf:RDF>
  </metadata>
  <defs
     id="defs2680" />
  <sodipodi:namedview
     pagecolor="#ffffff"
     bordercolor="#666666"
     borderopacity="1"
     objecttolerance="10"
     gridtolerance="10"
     guidetolerance="10"
     inkscape:pageopacity="0"
     inkscape:pageshadow="2"
     inkscape:window-width="1366"
     inkscape:window-height="705"
     id="namedview2678"
     showgrid="false"
     inkscape:zoom="1.478022"
     inkscape:cx="34.50818"
     inkscape:cy="14.439774"
     inkscape:window-x="-8"
     inkscape:window-y="-8"
     inkscape:window-maximized="1"
     inkscape:current-layer="svg2676" />
  <g
     id="#feffffff"
     transform="matrix(-0.13600803,0,0,-0.13600803,43.271026,38.885034)" />
  <g
     id="#848586ff"
     transform="matrix(-0.13600803,0,0,-0.13600803,43.271026,38.885034)">
    <path
       d="m 259.01,7.05 c 8.64,-0.11 17.3,-0.14 25.95,0 0.1,17.02 0.05,34.04 0,51.07 -6.58,-7.13 -27.95,4.27 -25.03,-12.1 8,-0.13 16.01,0.29 24.01,-0.13 0.02,-2.72 0.05,-8.17 0.07,-10.89 -0.01,-3.34 0.01,-6.67 -0.02,-10 0.02,-3.05 0.1,-6.1 0.08,-9.15 0.05,-2.6 0,-5.19 -0.16,-7.78 -7.92,-0.05 -15.87,-0.42 -23.78,0.04 -0.16,1.64 -0.17,3.29 -0.19,4.94 L 258.98,13 c 0,-1.48 0.02,-4.46 0.03,-5.95 z"
       id="path2514"
       inkscape:connector-curvature="0"
       style="opacity:1;fill:#848586" />
  </g>
  <g
     id="#282828ff"
     transform="matrix(-0.13600803,0,0,-0.13600803,43.271026,38.885034)">
    <path
       d="m 260.13,8.11 c 7.91,-0.46 15.86,-0.09 23.78,-0.04 0.16,2.59 0.21,5.18 0.16,7.78 -7.96,-1.35 -16.04,-0.79 -24.07,-0.87 -0.01,-0.48 -0.04,-1.45 -0.06,-1.93 0.02,-1.65 0.03,-3.3 0.19,-4.94 z"
       id="path2517"
       inkscape:connector-curvature="0"
       style="opacity:1;fill:#282828" />
  </g>
  <g
     id="#5c5d5eff"
     transform="matrix(-0.13600803,0,0,-0.13600803,43.271026,38.885034)">
    <path
       d="m 162.89,16.8 c 31.83,-4.5 64.02,-3.86 96.09,-3.8 l 0.96,0.05 c 0.02,0.48 0.05,1.45 0.06,1.93 -0.01,0.46 -0.02,1.38 -0.03,1.83 -26.7,5.84 -54.45,-1.24 -81.37,3.64 -14.38,-0.28 -28.27,3.04 -42.09,6.88 -3.86,2.07 -8.78,0.12 -12.28,2.87 -10.2,5.38 -22.43,6.19 -31.79,13.27 -2.65,1.61 -6.07,3.41 -9.18,2.19 C 79.3,54.45 68.67,56.74 63.06,64.07 56.68,70.36 49.37,75.95 44.81,83.83 42.88,86.44 38.85,90.7 35.97,86.88 62.65,43.6 114.18,22.85 162.89,16.8 Z"
       id="path2520"
       inkscape:connector-curvature="0"
       style="opacity:1;fill:#5c5d5e" />
  </g>
  <g
     id="#414142ff"
     transform="matrix(-0.13600803,0,0,-0.13600803,43.271026,38.885034)">
    <path
       d="m 260,14.98 c 8.03,0.08 16.11,-0.48 24.07,0.87 0.02,3.05 -0.06,6.1 -0.08,9.15 -7.98,0 -15.96,0.01 -23.94,-0.01 0,-0.71 -0.01,-2.12 -0.02,-2.83 0,-1.78 -0.03,-3.56 -0.06,-5.35 0.01,-0.45 0.02,-1.37 0.03,-1.83 z"
       id="path2523"
       inkscape:connector-curvature="0"
       style="opacity:1;fill:#414142" />
  </g>
  <g
     id="#656667ff"
     transform="matrix(-0.13600803,0,0,-0.13600803,43.271026,38.885034)">
    <path
       d="m 178.6,20.45 c 26.92,-4.88 54.67,2.2 81.37,-3.64 0.03,1.79 0.06,3.57 0.06,5.35 -41.43,1.16 -83.37,0.2 -124.03,9.91 -8.02,-0.1 -13.84,6.4 -21.83,6.2 -8.8,6.38 -20.9,7.07 -28.73,15.07 -27.03,14.85 -46.45,41.62 -55.14,70.97 -11.91,36.22 -10.11,75.32 -8.42,112.78 -1.96,0 -3.93,-0.01 -5.89,-0.05 0.47,-31.4 -1.91,-63.1 3.93,-94.15 1.1,-4.68 5.38,-9.09 2.42,-13.98 1.54,-5.97 9.14,-13.9 4.81,-19.96 1.78,-0.05 5.36,0.59 2.29,-1.28 5.28,-4.17 5.41,-11.5 9.59,-16.5 -5.13,0.63 -2.18,-0.9 -3.06,-4.29 2.88,3.82 6.91,-0.44 8.84,-3.05 4.56,-7.88 11.87,-13.47 18.25,-19.76 5.61,-7.33 16.24,-9.62 20.2,-18.41 3.11,1.22 6.53,-0.58 9.18,-2.19 9.36,-7.08 21.59,-7.89 31.79,-13.27 3.5,-2.75 8.42,-0.8 12.28,-2.87 13.82,-3.84 27.71,-7.16 42.09,-6.88 z"
       id="path2526"
       inkscape:connector-curvature="0"
       style="opacity:1;fill:#656667" />
  </g>
  <g
     id="#6c6d6fff"
     transform="matrix(-0.13600803,0,0,-0.13600803,43.271026,38.885034)">
    <path
       d="m 136,32.07 c 40.66,-9.71 82.6,-8.75 124.03,-9.91 0.01,0.71 0.02,2.12 0.02,2.83 -0.02,0.75 -0.05,2.26 -0.07,3.01 -55.48,-0.64 -114.39,-1.31 -165.02,24.9 -34.12,16.91 -56.8,51.34 -63.85,88.21 -7.1,31.4 -4.61,63.88 -5.1,95.87 -1.37,0.09 -2.75,0.12 -4.13,0.11 -1.69,-37.46 -3.49,-76.56 8.42,-112.78 8.69,-29.35 28.11,-56.12 55.14,-70.97 7.83,-8 19.93,-8.69 28.73,-15.07 7.99,0.2 13.81,-6.3 21.83,-6.2 z"
       id="path2529"
       inkscape:connector-curvature="0"
       style="opacity:1;fill:#6c6d6f" />
  </g>
  <g
     id="#575859ff"
     transform="matrix(-0.13600803,0,0,-0.13600803,43.271026,38.885034)">
    <path
       d="m 260.05,24.99 c 7.98,0.02 15.96,0.01 23.94,0.01 0.03,3.33 0.01,6.66 0.02,10 -7.98,0.02 -15.96,-0.08 -23.94,0.08 -0.02,-0.77 -0.06,-2.31 -0.08,-3.08 0,-1.33 -0.01,-2.67 -0.01,-4 0.02,-0.75 0.05,-2.26 0.07,-3.01 z"
       id="path2532"
       inkscape:connector-curvature="0"
       style="opacity:1;fill:#575859" />
  </g>
  <g
     id="#747577ff"
     transform="matrix(-0.13600803,0,0,-0.13600803,43.271026,38.885034)">
    <path
       d="M 94.96,52.9 C 145.59,26.69 204.5,27.36 259.98,28 c 0,1.33 0.01,2.67 0.01,4 C 216.72,31.74 172.31,30.15 130.54,43.4 106.99,49.71 83.79,60.86 67.22,79.21 53.37,91.19 46.91,108.42 39.59,124.62 29.24,159.77 30.88,196.76 31,233.01 c 0.41,2.72 -2.87,3.68 -4.99,3.97 0.49,-31.99 -2,-64.47 5.1,-95.87 7.05,-36.87 29.73,-71.3 63.85,-88.21 z"
       id="path2535"
       inkscape:connector-curvature="0"
       style="opacity:1;fill:#747577" />
  </g>
  <g
     id="#7b7c7eff"
     transform="matrix(-0.13600803,0,0,-0.13600803,43.271026,38.885034)">
    <path
       d="M 130.54,43.4 C 172.31,30.15 216.72,31.74 259.99,32 c 0.02,0.77 0.06,2.31 0.08,3.08 l -0.02,1.05 c -20.74,1.88 -41.71,0.66 -62.52,0.47 -37.52,2.45 -76.51,8.39 -108.46,29.48 -7.17,6.9 -16.72,11.22 -22.2,19.82 -16.91,19.42 -25.07,44.67 -29.24,69.7 -2.92,25.95 -0.93,52.12 -1.83,78.14 -1.65,1.82 -3.9,2.92 -5.99,4.15 -1.94,0.06 -3.87,0.09 -5.81,0.14 -2.67,-0.01 -5.33,-0.01 -8,0.01 -2.09,-0.07 -4.18,-0.16 -6.26,-0.27 l 0.1,-0.86 0.11,-0.76 c 1.95,0.62 3.99,0.91 6.04,0.89 1.96,0.04 3.93,0.05 5.89,0.05 1.38,0.01 2.76,-0.02 4.13,-0.11 2.12,-0.29 5.4,-1.25 4.99,-3.97 -0.12,-36.25 -1.76,-73.24 8.59,-108.39 7.32,-16.2 13.78,-33.43 27.63,-45.41 16.57,-18.35 39.77,-29.5 63.32,-35.81 z"
       id="path2538"
       inkscape:connector-curvature="0"
       style="opacity:1;fill:#7b7c7e" />
  </g>
  <g
     id="#6e6e6fff"
     transform="matrix(-0.13600803,0,0,-0.13600803,43.271026,38.885034)">
    <path
       d="m 260.07,35.08 c 7.98,-0.16 15.96,-0.06 23.94,-0.08 -0.02,2.72 -0.05,8.17 -0.07,10.89 -8,0.42 -16.01,0 -24.01,0.13 0.03,-1.67 0.05,-3.35 0.05,-5.02 0.04,-1.63 0.06,-3.25 0.07,-4.87 z"
       id="path2541"
       inkscape:connector-curvature="0"
       style="opacity:1;fill:#6e6e6f" />
  </g>
  <g
     id="#828385ff"
     transform="matrix(-0.13600803,0,0,-0.13600803,43.271026,38.885034)">
    <path
       d="m 197.53,36.6 c 20.81,0.19 41.78,1.41 62.52,-0.47 -0.01,1.62 -0.03,3.24 -0.07,4.87 -48.3,-0.18 -99.21,-2.83 -144.66,16.46 -30.14,10.76 -54.72,35.68 -64.87,66.09 -12.61,36.03 -9.27,74.77 -9.39,112.24 3.48,2.2 8.09,1.48 11.73,3.47 0.72,7.87 1.22,15.78 1.25,23.69 -15.33,0.1 -30.66,0.1 -45.99,0 -0.11,-8.64 -0.15,-17.27 0.01,-25.89 0.44,-0.04 1.33,-0.12 1.78,-0.15 l -0.1,0.86 c -1.02,7.99 -1.09,16.11 -0.61,24.15 1.72,0.03 5.15,0.08 6.87,0.1 2.67,0 5.33,0 8,-0.03 3,0 6,0.05 9.01,0.02 3.54,-1.25 9.19,2.1 11.86,-1.31 0.29,-6.83 0.35,-13.68 0.01,-20.5 -3.13,-3.08 -7.89,-1.94 -11.89,-2.26 -0.8,-0.01 -2.39,-0.04 -3.18,-0.05 2.09,-1.23 4.34,-2.33 5.99,-4.15 0.9,-26.02 -1.09,-52.19 1.83,-78.14 C 41.8,130.57 49.96,105.32 66.87,85.9 72.35,77.3 81.9,72.98 89.07,66.08 121.02,44.99 160.01,39.05 197.53,36.6 Z"
       id="path2544"
       inkscape:connector-curvature="0"
       style="opacity:1;fill:#828385" />
  </g>
  <g
     id="#8a8b8cff"
     transform="matrix(-0.13600803,0,0,-0.13600803,43.271026,38.885034)">
    <path
       d="M 115.32,57.46 C 160.77,38.17 211.68,40.82 259.98,41 c 0,1.67 -0.02,3.35 -0.05,5.02 -36.61,-2.41 -73.85,-0.72 -109.92,6.02 -22.9,4.8 -46.12,12.18 -63.96,28.01 -14.46,10.26 -22.26,26.21 -29.25,41.82 -12.43,35.53 -12.91,73.69 -11.5,110.84 1.25,4.83 6.91,4.3 10.87,4.24 0.45,0.01 1.35,0.03 1.8,0.04 1.68,0.04 3.36,0.03 5.04,0.01 1.73,0.01 5.19,0.02 6.92,0.03 1.36,0.01 2.71,0 4.07,-0.02 1.97,0.01 3.95,0.02 5.93,0.02 1.65,0.02 3.3,0.03 4.95,0.03 1.75,0.01 3.49,0.01 5.24,-0.02 1.96,0 3.92,-0.02 5.88,-0.03 1.38,0.02 2.76,0.03 4.14,0.03 1.6,0.01 3.21,0.01 4.82,-0.01 1.72,0 3.45,0.02 5.17,0.01 7.3,-0.01 14.6,-0.04 21.91,-0.07 3.36,0.02 6.74,0.09 10.11,0.07 3.95,0 7.9,-0.02 11.85,-0.05 4.62,0.01 9.25,0.05 13.88,0.05 7.36,0.01 14.72,0 22.09,-0.07 1.66,-0.02 3.32,-0.02 4.98,0.11 0.11,8.63 0.14,17.25 0,25.88 -46.97,0.06 -93.94,0.08 -140.91,-0.01 -0.03,-7.91 -0.53,-15.82 -1.25,-23.69 -3.64,-1.99 -8.25,-1.27 -11.73,-3.47 0.12,-37.47 -3.22,-76.21 9.39,-112.24 C 60.6,93.14 85.18,68.22 115.32,57.46 M 62.17,240.23 c -0.42,6.83 -0.24,13.69 -0.04,20.54 3.6,2.05 7.94,1.12 11.85,1.18 4.34,0.22 8.69,0.08 13.04,0 3.99,0.14 7.99,0.14 11.99,-0.02 6.66,0.27 13.33,0.07 19.99,0.03 1.75,0 5.25,0 7,0 2,0.13 4,0.12 6,-0.01 4.56,1.38 7.36,-2.07 5.99,-6.95 -1,-5.24 3.68,-19.4 -5.99,-16.95 -2,-0.14 -4,-0.14 -6,-0.01 -1.75,0.01 -5.25,0.01 -7,0.02 -6.98,-0.24 -13.96,-0.06 -20.94,-0.03 -4.02,-0.14 -8.05,-0.14 -12.07,0.01 -3.98,-0.13 -7.95,-0.13 -11.92,0 -3.96,0.34 -9.32,-1.72 -11.9,2.19 m 81.99,-1.01 c -0.57,7.55 -0.05,15.16 -0.11,22.73 1.64,0.12 3.3,0.11 4.95,0 1.66,0.11 3.33,0.11 5,-0.01 1.99,0.14 4,0.15 6,0.01 1.33,0.08 2.67,0.08 4,-0.01 9.97,0.24 19.94,0.03 29.91,0.02 0.34,-7.96 0.05,-15.93 0.04,-23.87 -9.98,-0.32 -19.97,-0.05 -29.95,-0.05 -1.34,-0.09 -2.67,-0.08 -4,0.01 -2,-0.14 -4.01,-0.14 -6,0.01 -1.67,-0.13 -3.34,-0.14 -5,-0.04 -1.67,0.06 -3.87,-0.59 -4.84,1.2 z"
       id="path2547"
       inkscape:connector-curvature="0"
       style="opacity:1;fill:#8a8b8c" />
  </g>
  <g
     id="#929395ff"
     transform="matrix(-0.13600803,0,0,-0.13600803,43.271026,38.885034)">
    <path
       d="m 150.01,52.04 c 36.07,-6.74 73.31,-8.43 109.92,-6.02 -2.92,16.37 18.45,4.97 25.03,12.1 0.16,1.94 0.13,3.9 -0.05,5.85 l -0.89,0.2 c -5.45,-6.4 -14.78,-0.58 -21.84,-2.27 -2.12,-2.95 -2.28,-6.87 -4.37,-9.83 -32.16,0.12 -64.66,-2.28 -96.42,4.19 -20.88,2.49 -41.63,8.27 -59.57,19.5 -19.4,11.74 -33.35,31.04 -40.74,52.26 -10.42,34.57 -9.25,71.05 -8.97,106.77 1.27,0.86 2.68,1.49 4.06,2.16 -3.96,0.06 -9.62,0.59 -10.87,-4.24 C 43.89,195.56 44.37,157.4 56.8,121.87 63.79,106.26 71.59,90.31 86.05,80.05 103.89,64.22 127.11,56.84 150.01,52.04 Z"
       id="path2550"
       inkscape:connector-curvature="0"
       style="opacity:1;fill:#929395" />
  </g>
  <g
     id="#9b9c9eff"
     transform="matrix(-0.13600803,0,0,-0.13600803,43.271026,38.885034)">
    <path
       d="m 161.39,56.26 c 31.76,-6.47 64.26,-4.07 96.42,-4.19 2.09,2.96 2.25,6.88 4.37,9.83 7.06,1.69 16.39,-4.13 21.84,2.27 -0.01,0.46 -0.02,1.38 -0.03,1.84 -7.29,-0.03 -14.59,0.18 -21.87,-0.08 -2.8,-3.35 -2.36,-11.63 -9.11,-8.96 -47.78,1 -99.26,-2.39 -143.13,19.91 -16.4,9.51 -30.67,23.05 -38.39,40.57 -16.61,37.42 -13.78,79.77 -13.52,119.54 -0.45,-0.01 -1.35,-0.03 -1.8,-0.04 -1.38,-0.67 -2.79,-1.3 -4.06,-2.16 -0.28,-35.72 -1.45,-72.2 8.97,-106.77 7.39,-21.22 21.34,-40.52 40.74,-52.26 17.94,-11.23 38.69,-17.01 59.57,-19.5 z"
       id="path2553"
       inkscape:connector-curvature="0"
       style="opacity:1;fill:#9b9c9e" />
  </g>
  <g
     id="#a3a4a6ff"
     transform="matrix(-0.13600803,0,0,-0.13600803,43.271026,38.885034)">
    <path
       d="m 109.88,76.88 c 43.87,-22.3 95.35,-18.91 143.13,-19.91 6.75,-2.67 6.31,5.61 9.11,8.96 7.28,0.26 14.58,0.05 21.87,0.08 0.01,1.33 0.01,2.66 0,4 -6.87,-0.01 -13.76,0.23 -20.61,-0.34 -3.72,-0.61 -3.44,-5.23 -5.61,-7.57 -32.31,-0.4 -64.92,-0.65 -96.84,4.82 -35.41,3.72 -73.63,22.07 -86.5,57.45 -12.98,36.01 -10.78,75.09 -11.42,112.63 -1.68,0.02 -3.36,0.03 -5.04,-0.01 -0.26,-39.77 -3.09,-82.12 13.52,-119.54 7.72,-17.52 21.99,-31.06 38.39,-40.57 z"
       id="path2556"
       inkscape:connector-curvature="0"
       style="opacity:1;fill:#a3a4a6" />
  </g>
  <g
     id="#aaabadff"
     transform="matrix(-0.13600803,0,0,-0.13600803,43.271026,38.885034)">
    <path
       d="m 160.93,66.92 c 31.92,-5.47 64.53,-5.22 96.84,-4.82 2.17,2.34 1.89,6.96 5.61,7.57 6.85,0.57 13.74,0.33 20.61,0.34 0.01,1.33 0.01,2.66 0,3.99 -8.76,-1.44 -22.01,4.74 -25.81,-6.2 -22.14,-1.81 -45.55,-0.79 -68.18,0.21 -18.63,-0.61 -36.32,6.33 -54.66,8.4 -17.66,7.12 -35.47,16.19 -46.5,32.39 -18.41,27.51 -19.5,62.17 -20.81,94.19 0.58,11.3 -1.9,23.09 1.9,34.04 -1.73,-0.01 -5.19,-0.02 -6.92,-0.03 0.64,-37.54 -1.56,-76.62 11.42,-112.63 12.87,-35.38 51.09,-53.73 86.5,-57.45 z"
       id="path2559"
       inkscape:connector-curvature="0"
       style="opacity:1;fill:#aaabad" />
  </g>
  <g
     id="#888989ff"
     transform="matrix(-0.13600803,0,0,-0.13600803,43.271026,38.885034)">
    <path
       d="m 284.02,64.17 0.89,-0.2 c 0.15,43.32 0.16,86.66 0,129.98 -8.62,0.11 -17.25,0.14 -25.87,0 -0.06,-4.98 -0.18,-9.96 -0.01,-14.94 l 0.95,-0.04 c 0.08,4.64 -0.22,9.31 0.13,13.96 7.93,0.05 15.89,0.43 23.82,-0.06 0.19,-9.96 0.08,-19.91 0.06,-29.87 0.01,-1.67 0.01,-3.33 0,-5 0.03,-2 0.04,-4.01 0.02,-6.01 -0.02,-1.73 -0.06,-5.2 -0.08,-6.93 -7.99,-0.21 -15.97,0.02 -23.96,-0.12 l -0.02,-1.06 c 0.02,-1.72 0.05,-5.16 0.07,-6.88 7.05,-2.79 26.65,6.92 24.01,-6.99 -0.01,-1.75 -0.02,-5.26 -0.02,-7.01 -0.01,-1.75 -0.02,-5.25 -0.02,-7 0.01,-3.29 0.07,-6.57 0.07,-9.85 0,-0.83 0,-2.48 0,-3.3 -0.01,-1.27 -0.02,-2.54 -0.05,-3.8 0,-1.37 0,-2.74 -0.01,-4.11 0.01,-1.99 0,-3.98 -0.02,-5.96 0,-0.74 0.01,-2.21 0.01,-2.94 C 284,84.69 284,83.34 284,82 c 0.01,-1.67 0.01,-3.34 0,-5 -0.01,-0.75 -0.01,-2.25 -0.01,-3 0.01,-1.33 0.01,-2.66 0,-3.99 0.01,-1.34 0.01,-2.67 0,-4 0.01,-0.46 0.02,-1.38 0.03,-1.84 z"
       id="path2562"
       inkscape:connector-curvature="0"
       style="opacity:1;fill:#888989" />
  </g>
  <g
     id="#b1b2b4ff"
     transform="matrix(-0.13600803,0,0,-0.13600803,43.271026,38.885034)">
    <path
       d="m 190,68.01 c 22.63,-1 46.04,-2.02 68.18,-0.21 3.8,10.94 17.05,4.76 25.81,6.2 0,0.75 0,2.25 0.01,3 -8.12,-2.12 -20.88,4.91 -25.8,-4.19 -2.49,-1.9 -6.43,-0.94 -9.21,-1.71 -30.08,-1.03 -60.1,1.28 -89.9,5.1 -13.81,3.23 -28.36,5.44 -40.49,13.34 -26.9,12.43 -38.9,42.84 -42.63,70.44 -1.88,25.63 -2.2,51.33 -1.97,77.03 -1.36,0.02 -2.71,0.03 -4.07,0.02 -3.8,-10.95 -1.32,-22.74 -1.9,-34.04 1.31,-32.02 2.4,-66.68 20.81,-94.19 11.03,-16.2 28.84,-25.27 46.5,-32.39 18.34,-2.07 36.03,-9.01 54.66,-8.4 z"
       id="path2565"
       inkscape:connector-curvature="0"
       style="opacity:1;fill:#b1b2b4" />
  </g>
  <g
     id="#b8b9bbff"
     transform="matrix(-0.13600803,0,0,-0.13600803,43.271026,38.885034)">
    <path
       d="m 159.09,76.2 c 29.8,-3.82 59.82,-6.13 89.9,-5.1 2.78,0.77 6.72,-0.19 9.21,1.71 4.92,9.1 17.68,2.07 25.8,4.19 0.01,1.66 0.01,3.33 0,5 -9.61,-0.51 -20.61,2.81 -27.65,-5.35 -33.95,-1.41 -68.75,-0.88 -102.36,5.43 -21,3.98 -42.76,12.24 -55.24,30.64 -13.06,14.06 -14.47,34.36 -17.62,52.39 -1.1,23.79 -6.59,48.3 -1.2,71.92 -1.98,0 -3.96,-0.01 -5.93,-0.02 -0.23,-25.7 0.09,-51.4 1.97,-77.03 3.73,-27.6 15.73,-58.01 42.63,-70.44 12.13,-7.9 26.68,-10.11 40.49,-13.34 z"
       id="path2568"
       inkscape:connector-curvature="0"
       style="opacity:1;fill:#b8b9bb" />
  </g>
  <g
     id="#bfc0c2ff"
     transform="matrix(-0.13600803,0,0,-0.13600803,43.271026,38.885034)">
    <path
       d="m 153.99,82.08 c 33.61,-6.31 68.41,-6.84 102.36,-5.43 7.04,8.16 18.04,4.84 27.65,5.35 0,1.34 0,2.69 -0.01,4.04 -8.22,-1.55 -18.3,1.51 -25.55,-3.57 -34.74,-0.49 -69.89,-1.67 -104.35,3.71 -17.69,4.18 -35.46,11.09 -47.91,25 -15.5,14.88 -18.11,37.53 -19.99,57.86 -1.96,22.55 -3.73,45.55 -1.31,68.02 -1.65,0 -3.3,-0.01 -4.95,-0.03 -5.39,-23.62 0.1,-48.13 1.2,-71.92 3.15,-18.03 4.56,-38.33 17.62,-52.39 12.48,-18.4 34.24,-26.66 55.24,-30.64 z"
       id="path2571"
       inkscape:connector-curvature="0"
       style="opacity:1;fill:#bfc0c2" />
  </g>
  <g
     id="#c7c8c9ff"
     transform="matrix(-0.13600803,0,0,-0.13600803,43.271026,38.885034)">
    <path
       d="m 154.09,86.18 c 34.46,-5.38 69.61,-4.2 104.35,-3.71 7.25,5.08 17.33,2.02 25.55,3.57 0,0.73 -0.01,2.2 -0.01,2.94 -8.48,1.14 -17.54,2.45 -25.55,-1.29 -35.28,-0.86 -71.16,-2.04 -106.01,4.82 -19.29,3.94 -38.57,13.65 -48.48,31.45 -11.87,17.31 -11.04,39.44 -12.5,59.45 -1.8,17.79 1.34,36.02 -1.32,53.63 -1.75,0.03 -3.49,0.03 -5.24,0.02 -2.42,-22.47 -0.65,-45.47 1.31,-68.02 1.88,-20.33 4.49,-42.98 19.99,-57.86 12.45,-13.91 30.22,-20.82 47.91,-25 z"
       id="path2574"
       inkscape:connector-curvature="0"
       style="opacity:1;fill:#c7c8c9" />
  </g>
  <g
     id="#5d5d5eff"
     transform="matrix(-0.13600803,0,0,-0.13600803,43.271026,38.885034)">
    <path
       d="M 9.95,236.15 C 9.8,186.05 5.4,130.1 35.97,86.88 c 0.88,3.39 -2.07,4.92 3.06,4.29 -4.18,5 -4.31,12.33 -9.59,16.5 3.07,1.87 -0.51,1.23 -2.29,1.28 4.33,6.06 -3.27,13.99 -4.81,19.96 2.96,4.89 -1.32,9.3 -2.42,13.98 -5.84,31.05 -3.46,62.75 -3.93,94.15 -2.05,0.02 -4.09,-0.27 -6.04,-0.89 z"
       id="path2577"
       inkscape:connector-curvature="0"
       style="opacity:1;fill:#5d5d5e" />
  </g>
  <g
     id="#cecfd1ff"
     transform="matrix(-0.13600803,0,0,-0.13600803,43.271026,38.885034)">
    <path
       d="m 152.42,92.51 c 34.85,-6.86 70.73,-5.68 106.01,-4.82 8.01,3.74 17.07,2.43 25.55,1.29 0.02,1.98 0.03,3.97 0.02,5.96 -24.67,-1.91 -49.35,-4.56 -74.16,-2.34 -31.83,0.22 -66.78,0.3 -92.89,21.42 C 88.9,148.28 97.71,196.16 96,237.01 c -1.96,0.01 -3.92,0.03 -5.88,0.03 2.66,-17.61 -0.48,-35.84 1.32,-53.63 1.46,-20.01 0.63,-42.14 12.5,-59.45 9.91,-17.8 29.19,-27.51 48.48,-31.45 z"
       id="path2580"
       inkscape:connector-curvature="0"
       style="opacity:1;fill:#cecfd1" />
  </g>
  <g
     id="#d5d5d7ff"
     transform="matrix(-0.13600803,0,0,-0.13600803,43.271026,38.885034)">
    <path
       d="m 116.95,114.02 c 26.11,-21.12 61.06,-21.2 92.89,-21.42 24.81,-2.22 49.49,0.43 74.16,2.34 0.01,1.37 0.01,2.74 0.01,4.11 -22.42,-0.63 -44.41,-5.08 -66.98,-2.88 -29.27,2.34 -61.56,-1.35 -87.38,15.44 -11.08,5.52 -16.83,17.19 -22.43,27.53 -8.68,31.93 -4.77,65.4 -7.08,97.9 -1.38,0 -2.76,-0.01 -4.14,-0.03 1.71,-40.85 -7.1,-88.73 20.95,-122.99 z"
       id="path2583"
       inkscape:connector-curvature="0"
       style="opacity:1;fill:#d5d5d7" />
  </g>
  <g
     id="#dcdcdeff"
     transform="matrix(-0.13600803,0,0,-0.13600803,43.271026,38.885034)">
    <path
       d="m 129.65,111.61 c 25.82,-16.79 58.11,-13.1 87.38,-15.44 22.57,-2.2 44.56,2.25 66.98,2.88 0.03,1.26 0.04,2.53 0.05,3.8 -34.91,-3.25 -69.93,-0.85 -104.91,-0.48 -13.83,0.47 -27.6,3.71 -40.04,9.77 -19.69,7.08 -29.06,28.45 -31.09,47.9 -1.37,23.28 -0.91,46.63 -1.08,69.95 1.24,2.9 -0.58,5 -1.98,7.04 -1.61,0.02 -3.22,0.02 -4.82,0.01 2.31,-32.5 -1.6,-65.97 7.08,-97.9 5.6,-10.34 11.35,-22.01 22.43,-27.53 z"
       id="path2586"
       inkscape:connector-curvature="0"
       style="opacity:1;fill:#dcdcde" />
  </g>
  <g
     id="#e3e3e4ff"
     transform="matrix(-0.13600803,0,0,-0.13600803,43.271026,38.885034)">
    <path
       d="m 179.15,102.37 c 34.98,-0.37 70,-2.77 104.91,0.48 0,0.82 0,2.47 0,3.3 -26.56,1.32 -53.45,-1.86 -80.09,0.66 -16.68,0.23 -34.39,-2.16 -50.03,5.01 -11.2,4.67 -24.23,8.17 -30.33,19.79 -7.55,8.13 -8.98,19.64 -10.11,30.24 -4,24.86 1.17,50.39 -3.37,75.19 -1.72,0.01 -3.45,-0.01 -5.17,-0.01 1.4,-2.04 3.22,-4.14 1.98,-7.04 0.17,-23.32 -0.29,-46.67 1.08,-69.95 2.03,-19.45 11.4,-40.82 31.09,-47.9 12.44,-6.06 26.21,-9.3 40.04,-9.77 z"
       id="path2589"
       inkscape:connector-curvature="0"
       style="opacity:1;fill:#e3e3e4" />
  </g>
  <g
     id="#e9e9ebff"
     transform="matrix(-0.13600803,0,0,-0.13600803,43.271026,38.885034)">
    <path
       d="m 153.94,111.82 c 15.64,-7.17 33.35,-4.78 50.03,-5.01 26.64,-2.52 53.53,0.66 80.09,-0.66 0,3.28 -0.06,6.56 -0.07,9.85 -7.1,2.08 -25.6,-5.92 -24.07,7.04 -24.47,1.91 -49.25,1.06 -73.76,0.29 -7.71,2.59 -16.87,-0.53 -23.63,5.16 -4.79,4.21 -14.48,2.04 -15.4,9.75 -11.45,7.5 -17.58,21.32 -16.41,34.78 1.37,21.27 -1.33,42.78 1.32,63.95 -7.31,0.03 -14.61,0.06 -21.91,0.07 4.54,-24.8 -0.63,-50.33 3.37,-75.19 1.13,-10.6 2.56,-22.11 10.11,-30.24 6.1,-11.62 19.13,-15.12 30.33,-19.79 z"
       id="path2592"
       inkscape:connector-curvature="0"
       style="opacity:1;fill:#e9e9eb" />
  </g>
  <g
     id="#d0d2d2ff"
     transform="matrix(-0.13600803,0,0,-0.13600803,43.271026,38.885034)">
    <path
       d="m 259.92,123.04 c -1.53,-12.96 16.97,-4.96 24.07,-7.04 0,1.75 0.01,5.25 0.02,7 -8.04,0.01 -16.06,-0.04 -24.09,0.04 z"
       id="path2595"
       inkscape:connector-curvature="0"
       style="opacity:1;fill:#d0d2d2" />
  </g>
  <g
     id="#e1e2e4ff"
     transform="matrix(-0.13600803,0,0,-0.13600803,43.271026,38.885034)">
    <path
       d="m 162.53,128.49 c 6.76,-5.69 15.92,-2.57 23.63,-5.16 24.51,0.77 49.29,1.62 73.76,-0.29 0.02,1.74 0.07,5.22 0.1,6.95 -0.02,1.36 -0.04,2.72 -0.05,4.08 -27.27,-1.61 -55.1,-2.8 -82.05,2.58 -9.9,-2.64 -14.43,10.32 -23.85,11.49 -9.3,8.93 -8.75,23.03 -12.31,34.7 -1.32,17.87 -1.42,36.78 0.39,54.2 -3.37,0.02 -6.75,-0.05 -10.11,-0.07 -2.65,-21.17 0.05,-42.68 -1.32,-63.95 -1.17,-13.46 4.96,-27.28 16.41,-34.78 0.92,-7.71 10.61,-5.54 15.4,-9.75 z"
       id="path2598"
       inkscape:connector-curvature="0"
       style="opacity:1;fill:#e1e2e4" />
  </g>
  <g
     id="#babbbcff"
     transform="matrix(-0.13600803,0,0,-0.13600803,43.271026,38.885034)">
    <path
       d="m 259.92,123.04 c 8.03,-0.08 16.05,-0.03 24.09,-0.04 0,1.75 0.01,5.26 0.02,7.01 -8.01,-0.01 -16.01,-0.01 -24.01,-0.02 -0.03,-1.73 -0.08,-5.21 -0.1,-6.95 z"
       id="path2601"
       inkscape:connector-curvature="0"
       style="opacity:1;fill:#babbbc" />
  </g>
  <g
     id="#a2a3a4ff"
     transform="matrix(-0.13600803,0,0,-0.13600803,43.271026,38.885034)">
    <path
       d="m 260.02,129.99 c 8,0.01 16,0.01 24.01,0.02 2.64,13.91 -16.96,4.2 -24.01,6.99 -0.01,-0.73 -0.04,-2.2 -0.05,-2.93 0.01,-1.36 0.03,-2.72 0.05,-4.08 z"
       id="path2604"
       inkscape:connector-curvature="0"
       style="opacity:1;fill:#a2a3a4" />
  </g>
  <g
     id="#d9dadcff"
     transform="matrix(-0.13600803,0,0,-0.13600803,43.271026,38.885034)">
    <path
       d="m 177.92,136.65 c 26.95,-5.38 54.78,-4.19 82.05,-2.58 0.01,0.73 0.04,2.2 0.05,2.93 -0.02,1.72 -0.05,5.16 -0.07,6.88 -22.47,5.16 -46.01,0.24 -68.79,2.45 -15.58,0.06 -25.79,12.74 -33.93,23.94 -6.28,21.73 0.8,44.69 -3.23,66.72 -3.95,0.03 -7.9,0.05 -11.85,0.05 -1.81,-17.42 -1.71,-36.33 -0.39,-54.2 3.56,-11.67 3.01,-25.77 12.31,-34.7 9.42,-1.17 13.95,-14.13 23.85,-11.49 z"
       id="path2607"
       inkscape:connector-curvature="0"
       style="opacity:1;fill:#d9dadc" />
  </g>
  <g
     id="#d1d2d4ff"
     transform="matrix(-0.13600803,0,0,-0.13600803,43.271026,38.885034)">
    <path
       d="m 191.16,146.33 c 22.78,-2.21 46.32,2.71 68.79,-2.45 l 0.02,1.06 c 0.01,1.76 0.03,5.29 0.04,7.06 -0.02,1.98 -0.01,3.96 0.03,5.94 -18.89,-4.31 -38.85,-1.9 -57.99,-0.16 -5.28,-1.48 -9.95,2.48 -15.07,3.23 -3.92,5.96 -12.16,6.76 -13.35,14.51 -4.72,0.18 -7.66,5.83 -5.23,9.84 -1.25,16.99 -2.63,34.7 -0.52,51.68 -4.63,0 -9.26,-0.04 -13.88,-0.05 4.03,-22.03 -3.05,-44.99 3.23,-66.72 8.14,-11.2 18.35,-23.88 33.93,-23.94 z"
       id="path2610"
       inkscape:connector-curvature="0"
       style="opacity:1;fill:#d1d2d4" />
  </g>
  <g
     id="#6a6a6bff"
     transform="matrix(-0.13600803,0,0,-0.13600803,43.271026,38.885034)">
    <path
       d="m 259.97,144.94 c 7.99,0.14 15.97,-0.09 23.96,0.12 0.02,1.73 0.06,5.2 0.08,6.93 -8,0.01 -16,0.01 -24,0.01 -0.01,-1.77 -0.03,-5.3 -0.04,-7.06 z"
       id="path2613"
       inkscape:connector-curvature="0"
       style="opacity:1;fill:#6a6a6b" />
  </g>
  <g
     id="#4f4f50ff"
     transform="matrix(-0.13600803,0,0,-0.13600803,43.271026,38.885034)">
    <path
       d="m 260.01,152 c 8,0 16,0 24,-0.01 0.02,2 0.01,4.01 -0.02,6.01 -7.99,-0.01 -15.97,0.05 -23.95,-0.06 -0.04,-1.98 -0.05,-3.96 -0.03,-5.94 z"
       id="path2616"
       inkscape:connector-curvature="0"
       style="opacity:1;fill:#4f4f50" />
  </g>
  <g
     id="#c8c9caff"
     transform="matrix(-0.13600803,0,0,-0.13600803,43.271026,38.885034)">
    <path
       d="m 202.05,157.78 c 19.14,-1.74 39.1,-4.15 57.99,0.16 -0.02,1.69 -0.04,3.37 -0.02,5.06 -0.06,5.32 0.03,10.65 -0.04,15.97 l -0.95,0.04 c -20.57,2.41 -45.45,-5.52 -63.63,7.4 -11.15,14.09 -2.79,34.24 -5.43,50.56 -7.37,0.07 -14.73,0.08 -22.09,0.07 -2.11,-16.98 -0.73,-34.69 0.52,-51.68 -2.43,-4.01 0.51,-9.66 5.23,-9.84 1.19,-7.75 9.43,-8.55 13.35,-14.51 5.12,-0.75 9.79,-4.71 15.07,-3.23 z"
       id="path2619"
       inkscape:connector-curvature="0"
       style="opacity:1;fill:#c8c9ca" />
  </g>
  <g
     id="#353436ff"
     transform="matrix(-0.13600803,0,0,-0.13600803,43.271026,38.885034)">
    <path
       d="m 260.04,157.94 c 7.98,0.11 15.96,0.05 23.95,0.06 0.01,1.67 0.01,3.33 0,5 -8,0 -15.98,0 -23.97,0 -0.02,-1.69 0,-3.37 0.02,-5.06 z"
       id="path2622"
       inkscape:connector-curvature="0"
       style="opacity:1;fill:#353436" />
  </g>
  <g
     id="#1a191cff"
     transform="matrix(-0.13600803,0,0,-0.13600803,43.271026,38.885034)">
    <path
       d="m 260.02,163 c 7.99,0 15.97,0 23.97,0 0.02,9.96 0.13,19.91 -0.06,29.87 -7.93,0.49 -15.89,0.11 -23.82,0.06 -0.35,-4.65 -0.05,-9.32 -0.13,-13.96 0.07,-5.32 -0.02,-10.65 0.04,-15.97 z"
       id="path2625"
       inkscape:connector-curvature="0"
       style="opacity:1;fill:#1a191c" />
  </g>
  <g
     id="#272729ff"
     transform="matrix(-0.13600803,0,0,-0.13600803,43.271026,38.885034)">
    <path
       d="m 9.13,261.92 c -0.48,-8.04 -0.41,-16.16 0.61,-24.15 2.08,0.11 4.17,0.2 6.26,0.27 0,7.99 0,15.98 0,23.98 -1.72,-0.02 -5.15,-0.07 -6.87,-0.1 z"
       id="path2628"
       inkscape:connector-curvature="0"
       style="opacity:1;fill:#272729" />
  </g>
  <g
     id="#3d3d3fff"
     transform="matrix(-0.13600803,0,0,-0.13600803,43.271026,38.885034)">
    <path
       d="m 16,238.04 c 2.67,-0.02 5.33,-0.02 8,-0.01 0,7.99 0,15.97 0,23.96 -2.67,0.03 -5.33,0.03 -8,0.03 0,-8 0,-15.99 0,-23.98 z"
       id="path2631"
       inkscape:connector-curvature="0"
       style="opacity:1;fill:#3d3d3f" />
  </g>
  <g
     id="#515253ff"
     transform="matrix(-0.13600803,0,0,-0.13600803,43.271026,38.885034)">
    <path
       d="m 24,238.03 c 1.94,-0.05 3.87,-0.08 5.81,-0.14 0.79,0.01 2.38,0.04 3.18,0.05 0.02,8.02 0.01,16.05 0.02,24.07 C 30,262.04 27,261.99 24,261.99 24,254 24,246.02 24,238.03 Z"
       id="path2634"
       inkscape:connector-curvature="0"
       style="opacity:1;fill:#515253" />
  </g>
  <g
     id="#68696aff"
     transform="matrix(-0.13600803,0,0,-0.13600803,43.271026,38.885034)">
    <path
       d="m 32.99,237.94 c 4,0.32 8.76,-0.82 11.89,2.26 0.34,6.82 0.28,13.67 -0.01,20.5 -2.67,3.41 -8.32,0.06 -11.86,1.31 -0.01,-8.02 0,-16.05 -0.02,-24.07 z"
       id="path2637"
       inkscape:connector-curvature="0"
       style="opacity:1;fill:#68696a" />
  </g>
  <g
     id="#a2a2a4ff"
     transform="matrix(-0.13600803,0,0,-0.13600803,43.271026,38.885034)">
    <path
       d="m 62.17,240.23 c 2.58,-3.91 7.94,-1.85 11.9,-2.19 1.57,7.93 -0.04,15.93 -0.09,23.91 -3.91,-0.06 -8.25,0.87 -11.85,-1.18 -0.2,-6.85 -0.38,-13.71 0.04,-20.54 z"
       id="path2640"
       inkscape:connector-curvature="0"
       style="opacity:1;fill:#a2a2a4" />
  </g>
  <g
     id="#b8b8baff"
     transform="matrix(-0.13600803,0,0,-0.13600803,43.271026,38.885034)">
    <path
       d="m 74.07,238.04 c 3.97,-0.13 7.94,-0.13 11.92,0 -0.06,7.97 -0.23,16 1.03,23.91 -4.35,0.08 -8.7,0.22 -13.04,0 0.05,-7.98 1.66,-15.98 0.09,-23.91 z"
       id="path2643"
       inkscape:connector-curvature="0"
       style="opacity:1;fill:#b8b8ba" />
  </g>
  <g
     id="#cdcdcfff"
     transform="matrix(-0.13600803,0,0,-0.13600803,43.271026,38.885034)">
    <path
       d="m 85.99,238.04 c 4.02,-0.15 8.05,-0.15 12.07,-0.01 1.34,7.89 0.93,15.93 0.95,23.9 -4,0.16 -8,0.16 -11.99,0.02 -1.26,-7.91 -1.09,-15.94 -1.03,-23.91 z"
       id="path2646"
       inkscape:connector-curvature="0"
       style="opacity:1;fill:#cdcdcf" />
  </g>
  <g
     id="#e2e2e4ff"
     transform="matrix(-0.13600803,0,0,-0.13600803,43.271026,38.885034)">
    <path
       d="m 98.06,238.03 c 6.98,-0.03 13.96,-0.21 20.94,0.03 0,7.96 0,15.93 0,23.9 -6.66,0.04 -13.33,0.24 -19.99,-0.03 -0.02,-7.97 0.39,-16.01 -0.95,-23.9 z"
       id="path2649"
       inkscape:connector-curvature="0"
       style="opacity:1;fill:#e2e2e4" />
  </g>
  <g
     id="#cbcbcdff"
     transform="matrix(-0.13600803,0,0,-0.13600803,43.271026,38.885034)">
    <path
       d="m 119,238.06 c 1.75,-0.01 5.25,-0.01 7,-0.02 0,7.97 0,15.94 0,23.92 -1.75,0 -5.25,0 -7,0 0,-7.97 0,-15.94 0,-23.9 z"
       id="path2652"
       inkscape:connector-curvature="0"
       style="opacity:1;fill:#cbcbcd" />
  </g>
  <g
     id="#b5b6b7ff"
     transform="matrix(-0.13600803,0,0,-0.13600803,43.271026,38.885034)">
    <path
       d="m 126,238.04 c 2,-0.13 4,-0.13 6,0.01 0,7.96 0,15.93 0,23.9 -2,0.13 -4,0.14 -6,0.01 0,-7.98 0,-15.95 0,-23.92 z"
       id="path2655"
       inkscape:connector-curvature="0"
       style="opacity:1;fill:#b5b6b7" />
  </g>
  <g
     id="#a1a2a3ff"
     transform="matrix(-0.13600803,0,0,-0.13600803,43.271026,38.885034)">
    <path
       d="m 132,238.05 c 9.67,-2.45 4.99,11.71 5.99,16.95 1.37,4.88 -1.43,8.33 -5.99,6.95 0,-7.97 0,-15.94 0,-23.9 z"
       id="path2658"
       inkscape:connector-curvature="0"
       style="opacity:1;fill:#a1a2a3" />
  </g>
  <g
     id="#777778ff"
     transform="matrix(-0.13600803,0,0,-0.13600803,43.271026,38.885034)">
    <path
       d="m 144.16,239.22 c 0.97,-1.79 3.17,-1.14 4.84,-1.2 0,7.97 0,15.95 0,23.93 -1.65,0.11 -3.31,0.12 -4.95,0 0.06,-7.57 -0.46,-15.18 0.11,-22.73 z"
       id="path2661"
       inkscape:connector-curvature="0"
       style="opacity:1;fill:#777778" />
  </g>
  <g
     id="#636364ff"
     transform="matrix(-0.13600803,0,0,-0.13600803,43.271026,38.885034)">
    <path
       d="m 149,238.02 c 1.66,-0.1 3.33,-0.09 5,0.04 0,7.96 0,15.92 0,23.88 -1.67,0.12 -3.34,0.12 -5,0.01 0,-7.98 0,-15.96 0,-23.93 z"
       id="path2664"
       inkscape:connector-curvature="0"
       style="opacity:1;fill:#636364" />
  </g>
  <g
     id="#4b4b4dff"
     transform="matrix(-0.13600803,0,0,-0.13600803,43.271026,38.885034)">
    <path
       d="m 154,238.06 c 1.99,-0.15 4,-0.15 6,-0.01 0,7.96 0,15.93 0,23.9 -2,0.14 -4.01,0.13 -6,-0.01 0,-7.96 0,-15.92 0,-23.88 z"
       id="path2667"
       inkscape:connector-curvature="0"
       style="opacity:1;fill:#4b4b4d" />
  </g>
  <g
     id="#333234ff"
     transform="matrix(-0.13600803,0,0,-0.13600803,43.271026,38.885034)">
    <path
       d="m 160,238.05 c 1.33,-0.09 2.66,-0.1 4,-0.01 0,7.96 0,15.93 0,23.9 -1.33,0.09 -2.67,0.09 -4,0.01 0,-7.97 0,-15.94 0,-23.9 z"
       id="path2670"
       inkscape:connector-curvature="0"
       style="opacity:1;fill:#333234" />
  </g>
  <g
     id="#1b191dff"
     transform="matrix(-0.13600803,0,0,-0.13600803,43.271026,38.885034)">
    <path
       d="m 164,238.04 c 9.98,0 19.97,-0.27 29.95,0.05 0.01,7.94 0.3,15.91 -0.04,23.87 -9.97,0.01 -19.94,0.22 -29.91,-0.02 0,-7.97 0,-15.94 0,-23.9 z"
       id="path2673"
       inkscape:connector-curvature="0"
       style="opacity:1;fill:#1b191d" />
  </g>
</svg>
