<?xml version="1.0" encoding="UTF-8" ?>
<!DOCTYPE svg PUBLIC "-//W3C//DTD SVG 1.1//EN" "http://www.w3.org/Graphics/SVG/1.1/DTD/svg11.dtd">
<svg width="285pt" height="260pt" viewBox="0 0 285 260" version="1.1" xmlns="http://www.w3.org/2000/svg">
<g id="#ffffffff">
<path fill="#ffffff" opacity="1.00" d=" M 0.00 0.00 L 285.00 0.00 L 285.00 260.00 L 0.00 260.00 L 0.00 0.00 M 116.21 19.03 C 88.32 32.65 60.19 45.81 32.20 59.21 C 23.23 63.30 14.41 67.75 5.85 72.65 C 5.25 79.74 5.15 86.84 5.25 93.95 C 5.47 111.30 4.55 128.62 4.84 145.96 C 4.13 172.30 4.64 198.65 4.40 225.00 C 3.60 234.33 4.13 243.72 4.00 253.08 C 4.89 253.50 5.78 253.93 6.67 254.37 C 27.77 254.43 48.87 254.15 69.96 254.54 C 133.28 254.99 196.64 254.62 259.98 254.78 C 265.79 255.53 271.66 255.28 277.50 255.38 C 280.08 251.50 279.20 246.69 278.93 242.34 C 279.78 217.89 278.61 193.38 279.60 168.93 C 279.74 150.65 279.51 132.37 279.73 114.10 C 280.05 106.74 280.33 99.37 280.19 92.00 C 279.99 85.59 281.02 79.19 280.40 72.78 C 272.88 70.61 266.28 66.17 259.14 63.05 C 230.31 47.83 200.82 33.89 171.77 19.07 C 163.19 14.14 154.19 9.99 145.21 5.84 C 135.39 9.89 125.92 14.73 116.21 19.03 Z" />
<path fill="#ffffff" opacity="1.00" d=" M 120.54 19.68 C 128.57 16.73 136.00 12.26 144.04 9.26 C 146.50 8.79 148.67 10.43 150.83 11.34 C 180.37 26.12 209.83 41.07 239.47 55.66 C 251.09 60.99 262.64 66.49 273.82 72.73 C 252.55 73.34 231.25 72.82 209.97 73.00 C 173.97 71.78 137.92 72.81 101.90 72.27 C 72.66 71.23 43.36 72.75 14.14 71.26 L 13.86 72.33 C 13.74 72.08 13.50 71.56 13.38 71.30 C 24.00 65.94 34.76 60.86 45.54 55.82 C 56.65 50.71 67.47 45.01 78.61 39.97 C 92.43 32.89 106.81 26.92 120.54 19.68 Z" />
<path fill="#ffffff" opacity="1.00" d=" M 8.26 74.34 C 32.49 74.14 56.72 74.29 80.93 74.78 C 109.96 74.76 138.99 74.79 168.01 74.80 C 174.99 75.60 182.02 75.18 189.03 75.28 C 218.59 75.43 248.16 74.95 277.71 75.55 C 277.63 82.04 277.96 88.54 277.29 95.00 C 277.03 119.00 277.58 143.02 276.83 167.02 C 276.81 195.62 276.13 224.22 276.38 252.83 C 219.57 252.90 162.77 252.84 105.97 252.86 C 97.33 252.78 88.67 253.09 80.04 252.46 C 62.02 252.26 44.01 252.48 25.99 252.34 C 19.52 251.51 13.00 252.15 6.52 251.64 C 6.10 244.41 6.52 237.18 6.35 229.95 C 6.78 214.37 5.98 198.76 7.06 183.19 C 7.20 166.81 7.11 150.43 7.12 134.05 C 8.14 114.16 6.93 94.22 8.26 74.34 Z" />
</g>
<g id="#3b3b3bff">
<path fill="#3b3b3b" opacity="1.00" d=" M 116.21 19.03 C 125.92 14.73 135.39 9.89 145.21 5.84 C 154.19 9.99 163.19 14.14 171.77 19.07 C 200.82 33.89 230.31 47.83 259.14 63.05 C 266.28 66.17 272.88 70.61 280.40 72.78 C 281.02 79.19 279.99 85.59 280.19 92.00 C 280.33 99.37 280.05 106.74 279.73 114.10 C 279.51 132.37 279.74 150.65 279.60 168.93 C 278.61 193.38 279.78 217.89 278.93 242.34 C 279.20 246.69 280.08 251.50 277.50 255.38 C 271.66 255.28 265.79 255.53 259.98 254.78 C 196.64 254.62 133.28 254.99 69.96 254.54 C 48.87 254.15 27.77 254.43 6.67 254.37 C 5.78 253.93 4.89 253.50 4.00 253.08 C 4.13 243.72 3.60 234.33 4.40 225.00 C 4.64 198.65 4.13 172.30 4.84 145.96 C 4.55 128.62 5.47 111.30 5.25 93.95 C 5.15 86.84 5.25 79.74 5.85 72.65 C 14.41 67.75 23.23 63.30 32.20 59.21 C 60.19 45.81 88.32 32.65 116.21 19.03 M 120.54 19.68 C 106.81 26.92 92.43 32.89 78.61 39.97 C 67.47 45.01 56.65 50.71 45.54 55.82 C 34.76 60.86 24.00 65.94 13.38 71.30 C 13.50 71.56 13.74 72.08 13.86 72.33 L 14.14 71.26 C 43.36 72.75 72.66 71.23 101.90 72.27 C 137.92 72.81 173.97 71.78 209.97 73.00 C 231.25 72.82 252.55 73.34 273.82 72.73 C 262.64 66.49 251.09 60.99 239.47 55.66 C 209.83 41.07 180.37 26.12 150.83 11.34 C 148.67 10.43 146.50 8.79 144.04 9.26 C 136.00 12.26 128.57 16.73 120.54 19.68 M 8.26 74.34 C 6.93 94.22 8.14 114.16 7.12 134.05 C 7.11 150.43 7.20 166.81 7.06 183.19 C 5.98 198.76 6.78 214.37 6.35 229.95 C 6.52 237.18 6.10 244.41 6.52 251.64 C 13.00 252.15 19.52 251.51 25.99 252.34 C 44.01 252.48 62.02 252.26 80.04 252.46 C 88.67 253.09 97.33 252.78 105.97 252.86 C 162.77 252.84 219.57 252.90 276.38 252.83 C 276.13 224.22 276.81 195.62 276.83 167.02 C 277.58 143.02 277.03 119.00 277.29 95.00 C 277.96 88.54 277.63 82.04 277.71 75.55 C 248.16 74.95 218.59 75.43 189.03 75.28 C 182.02 75.18 174.99 75.60 168.01 74.80 C 138.99 74.79 109.96 74.76 80.93 74.78 C 56.72 74.29 32.49 74.14 8.26 74.34 Z" />
</g>
</svg>
