<?xml version="1.0" encoding="UTF-8" ?>
<!DOCTYPE svg PUBLIC "-//W3C//DTD SVG 1.1//EN" "http://www.w3.org/Graphics/SVG/1.1/DTD/svg11.dtd">
<svg width="272pt" height="217pt" viewBox="0 0 272 217" version="1.1" xmlns="http://www.w3.org/2000/svg">
<g id="#ffffffff">
<path fill="#ffffff" opacity="1.00" d=" M 0.00 0.00 L 272.00 0.00 L 272.00 217.00 L 0.00 217.00 L 0.00 0.00 M 95.96 7.39 C 85.75 8.66 75.51 10.62 66.05 14.81 C 35.55 26.98 12.33 55.14 5.28 87.10 C 2.85 96.85 3.07 106.99 3.33 116.96 C 3.64 125.49 5.72 133.86 8.58 141.86 C 19.17 173.90 47.06 199.56 79.85 207.51 C 113.63 216.74 151.77 206.15 176.51 181.53 C 188.26 170.50 196.79 156.24 201.95 141.05 C 208.04 122.24 208.74 101.69 204.04 82.52 C 223.97 82.29 243.92 82.73 263.86 82.48 C 265.63 82.71 266.13 80.48 266.12 79.14 C 266.28 59.73 265.82 40.30 266.42 20.91 C 265.96 16.51 268.30 11.37 265.51 7.49 C 257.03 6.42 248.37 8.41 239.95 6.84 C 236.02 8.13 232.00 6.80 228.01 6.76 C 196.03 6.80 164.04 6.77 132.05 6.78 C 120.02 7.06 107.90 5.33 95.96 7.39 Z" />
<path fill="#ffffff" opacity="1.00" d=" M 74.84 14.85 C 92.44 9.90 110.87 9.50 129.03 9.65 C 161.72 9.71 194.42 9.54 227.11 9.74 C 236.76 10.41 246.43 10.29 256.10 10.34 C 257.87 10.18 260.16 11.10 261.37 9.35 C 264.08 12.76 263.56 17.84 263.71 22.01 C 263.30 35.01 264.56 48.12 262.83 61.03 C 262.71 66.72 263.06 72.42 262.70 78.10 C 253.01 79.84 242.84 78.38 232.97 78.66 C 223.63 78.95 214.29 78.51 204.95 78.73 C 203.10 78.73 201.28 79.08 199.51 79.58 C 203.63 92.00 205.19 105.24 204.00 118.27 C 202.31 132.11 198.21 145.71 191.41 157.91 C 185.54 168.74 177.09 177.92 167.77 185.87 C 155.44 195.98 140.60 202.65 125.12 206.21 C 105.21 209.32 84.07 208.36 65.60 199.70 C 52.01 194.00 39.70 185.14 30.33 173.74 C 20.68 163.59 14.53 150.65 10.15 137.47 C 7.82 131.22 7.31 124.52 6.34 117.97 C 5.05 109.33 5.86 100.54 7.36 91.98 C 12.88 56.26 40.35 25.34 74.84 14.85 Z" />
</g>
<g id="#393939ff">
<path fill="#393939" opacity="1.00" d=" M 95.96 7.39 C 107.90 5.33 120.02 7.06 132.05 6.78 C 164.04 6.77 196.03 6.80 228.01 6.76 C 232.00 6.80 236.02 8.13 239.95 6.84 C 248.37 8.41 257.03 6.42 265.51 7.49 C 268.30 11.37 265.96 16.51 266.42 20.91 C 265.82 40.30 266.28 59.73 266.12 79.14 C 266.13 80.48 265.63 82.71 263.86 82.48 C 243.92 82.73 223.97 82.29 204.04 82.52 C 208.74 101.69 208.04 122.24 201.95 141.05 C 196.79 156.24 188.26 170.50 176.51 181.53 C 151.77 206.15 113.63 216.74 79.85 207.51 C 47.06 199.56 19.17 173.90 8.58 141.86 C 5.72 133.86 3.64 125.49 3.33 116.96 C 3.07 106.99 2.85 96.85 5.28 87.10 C 12.33 55.14 35.55 26.98 66.05 14.81 C 75.51 10.62 85.75 8.66 95.96 7.39 M 74.84 14.85 C 40.35 25.34 12.88 56.26 7.36 91.98 C 5.86 100.54 5.05 109.33 6.34 117.97 C 7.31 124.52 7.82 131.22 10.15 137.47 C 14.53 150.65 20.68 163.59 30.33 173.74 C 39.70 185.14 52.01 194.00 65.60 199.70 C 84.07 208.36 105.21 209.32 125.12 206.21 C 140.60 202.65 155.44 195.98 167.77 185.87 C 177.09 177.92 185.54 168.74 191.41 157.91 C 198.21 145.71 202.31 132.11 204.00 118.27 C 205.19 105.24 203.63 92.00 199.51 79.58 C 201.28 79.08 203.10 78.73 204.95 78.73 C 214.29 78.51 223.63 78.95 232.97 78.66 C 242.84 78.38 253.01 79.84 262.70 78.10 C 263.06 72.42 262.71 66.72 262.83 61.03 C 264.56 48.12 263.30 35.01 263.71 22.01 C 263.56 17.84 264.08 12.76 261.37 9.35 C 260.16 11.10 257.87 10.18 256.10 10.34 C 246.43 10.29 236.76 10.41 227.11 9.74 C 194.42 9.54 161.72 9.71 129.03 9.65 C 110.87 9.50 92.44 9.90 74.84 14.85 Z" />
</g>
</svg>
