<svg xmlns="http://www.w3.org/2000/svg" width="434pt" height="500" viewBox="0 0 434 351" version="1.1" class="col-md-12 svg replaced-svg" preserveAspectRatio="xMinYMin meet" style="padding-bottom: 10px;">
<g id="#ffffffff">
<path fill="#ffffff" opacity="1.00" d=" M 0.00 0.00 L 434.00 0.00 L 434.00 351.00 L 0.00 351.00 L 0.00 0.00 M 224.13 44.24 C 178.61 55.65 132.97 66.62 87.54 78.38 C 87.28 78.08 86.76 77.48 86.49 77.17 C 87.99 71.66 91.22 66.90 93.81 61.88 C 91.53 61.87 89.24 61.86 86.96 61.84 C 86.91 53.90 86.97 45.95 86.95 38.01 C 86.99 36.05 86.40 34.16 85.96 32.28 C 85.14 33.32 83.82 34.28 83.92 35.78 C 83.74 44.47 83.70 53.17 83.89 61.86 C 81.56 61.87 79.23 61.87 76.90 61.89 C 79.75 67.38 83.64 72.46 84.96 78.62 C 76.05 81.62 66.64 82.77 57.79 85.96 C 57.66 86.52 57.40 87.65 57.28 88.22 C 57.49 111.55 57.29 134.90 57.39 158.24 C 53.01 159.25 48.48 158.57 44.03 158.76 C 30.67 158.95 17.29 158.37 3.95 159.06 C 4.48 160.02 4.65 161.64 6.08 161.64 C 23.16 161.65 40.24 161.54 57.32 161.68 C 57.47 186.77 57.28 211.85 57.41 236.93 C 150.11 258.98 242.83 280.96 335.65 302.62 C 335.76 311.25 335.89 319.90 335.61 328.52 C 333.70 329.52 331.23 328.78 329.11 329.01 C 331.27 333.04 333.80 336.90 335.49 341.17 C 335.86 342.30 336.72 343.14 337.47 344.03 C 340.30 339.06 342.93 333.97 345.77 329.00 C 343.91 328.99 342.06 328.99 340.21 328.99 C 340.06 323.64 340.17 318.30 339.89 313.01 C 340.43 310.04 340.19 307.02 340.23 304.02 C 344.26 304.44 348.12 305.82 352.11 306.36 C 356.03 305.44 353.08 306.93 352.33 307.60 C 356.98 306.89 361.07 309.51 365.60 309.78 C 366.21 304.20 365.35 298.61 365.52 293.01 C 365.52 250.02 365.54 207.02 365.51 164.03 C 365.49 162.96 365.61 161.91 365.87 160.87 C 367.86 160.45 369.91 160.53 371.95 160.52 C 387.65 160.59 403.35 160.49 419.05 160.57 C 421.73 160.60 425.25 161.86 426.93 158.92 C 425.01 158.28 422.99 158.04 420.97 158.12 C 412.36 158.21 403.75 158.04 395.14 158.21 C 388.11 158.93 381.03 158.45 373.99 158.13 C 371.13 157.95 368.23 158.79 365.45 157.88 C 365.64 110.26 365.45 62.62 365.54 14.99 C 365.48 12.90 366.01 10.76 365.38 8.71 C 318.42 21.01 271.23 32.45 224.13 44.24 Z"/>
<path fill="#ffffff" opacity="1.00" d=" M 63.17 87.00 C 162.79 61.76 262.73 37.59 362.39 12.46 C 363.01 13.56 363.30 14.73 363.26 15.99 C 363.23 93.98 363.26 171.98 363.25 249.97 C 363.21 254.64 363.50 259.34 362.75 263.98 C 362.13 267.30 363.72 270.66 362.74 273.93 C 363.50 276.25 363.28 278.71 363.15 281.10 C 362.75 282.00 362.54 282.94 362.53 283.91 C 362.48 291.23 362.54 298.54 362.48 305.85 C 351.23 304.08 340.28 300.76 329.14 298.44 C 239.98 277.64 150.85 256.67 61.82 235.33 C 60.31 235.05 60.11 233.31 60.20 232.07 C 60.17 216.38 60.41 200.69 59.79 185.01 C 59.95 168.66 59.42 152.28 60.12 135.95 C 59.30 120.97 60.38 105.97 59.81 90.99 C 59.39 88.80 61.16 87.25 63.17 87.00 Z"/>
</g>
<g id="#030303ff">
<path fill="#030303" opacity="1.00" d=" M 224.13 44.24 C 271.23 32.45 318.42 21.01 365.38 8.71 C 366.01 10.76 365.48 12.90 365.54 14.99 C 365.45 62.62 365.64 110.26 365.45 157.88 C 368.23 158.79 371.13 157.95 373.99 158.13 C 381.03 158.45 388.11 158.93 395.14 158.21 C 403.75 158.04 412.36 158.21 420.97 158.12 C 422.99 158.04 425.01 158.28 426.93 158.92 C 425.25 161.86 421.73 160.60 419.05 160.57 C 403.35 160.49 387.65 160.59 371.95 160.52 C 369.91 160.53 367.86 160.45 365.87 160.87 C 365.61 161.91 365.49 162.96 365.51 164.03 C 365.54 207.02 365.52 250.02 365.52 293.01 C 365.35 298.61 366.21 304.20 365.60 309.78 C 361.07 309.51 356.98 306.89 352.33 307.60 C 353.08 306.93 356.03 305.44 352.11 306.36 C 348.12 305.82 344.26 304.44 340.23 304.02 C 340.19 307.02 340.43 310.04 339.89 313.01 C 340.17 318.30 340.06 323.64 340.21 328.99 C 342.06 328.99 343.91 328.99 345.77 329.00 C 342.93 333.97 340.30 339.06 337.47 344.03 C 336.72 343.14 335.86 342.30 335.49 341.17 C 333.80 336.90 331.27 333.04 329.11 329.01 C 331.23 328.78 333.70 329.52 335.61 328.52 C 335.89 319.90 335.76 311.25 335.65 302.62 C 242.83 280.96 150.11 258.98 57.41 236.93 C 57.28 211.85 57.47 186.77 57.32 161.68 C 40.24 161.54 23.16 161.65 6.08 161.64 C 4.65 161.64 4.48 160.02 3.95 159.06 C 17.29 158.37 30.67 158.95 44.03 158.76 C 48.48 158.57 53.01 159.25 57.39 158.24 C 57.29 134.90 57.49 111.55 57.28 88.22 C 57.40 87.65 57.66 86.52 57.79 85.96 C 66.64 82.77 76.05 81.62 84.96 78.62 C 83.64 72.46 79.75 67.38 76.90 61.89 C 79.23 61.87 81.56 61.87 83.89 61.86 C 83.70 53.17 83.74 44.47 83.92 35.78 C 83.82 34.28 85.14 33.32 85.96 32.28 C 86.40 34.16 86.99 36.05 86.95 38.01 C 86.97 45.95 86.91 53.90 86.96 61.84 C 89.24 61.86 91.53 61.87 93.81 61.88 C 91.22 66.90 87.99 71.66 86.49 77.17 C 86.76 77.48 87.28 78.08 87.54 78.38 C 132.97 66.62 178.61 55.65 224.13 44.24 M 63.17 87.00 C 61.16 87.25 59.39 88.80 59.81 90.99 C 60.38 105.97 59.30 120.97 60.12 135.95 C 59.42 152.28 59.95 168.66 59.79 185.01 C 60.41 200.69 60.17 216.38 60.20 232.07 C 60.11 233.31 60.31 235.05 61.82 235.33 C 150.85 256.67 239.98 277.64 329.14 298.44 C 340.28 300.76 351.23 304.08 362.48 305.85 C 362.54 298.54 362.48 291.23 362.53 283.91 C 362.54 282.94 362.75 282.00 363.15 281.10 C 363.28 278.71 363.50 276.25 362.74 273.93 C 363.72 270.66 362.13 267.30 362.75 263.98 C 363.50 259.34 363.21 254.64 363.25 249.97 C 363.26 171.98 363.23 93.98 363.26 15.99 C 363.30 14.73 363.01 13.56 362.39 12.46 C 262.73 37.59 162.79 61.76 63.17 87.00 Z"/>
</g>
</svg>